{
    "processor_list": [
        {
            "core": 0, 
            "os_core": 0, 
            "socket": 0, 
            "hw_thread": 0
        }, 
        {
            "core": 1, 
            "os_core": 8, 
            "socket": 0, 
            "hw_thread": 0
        }, 
        {
            "core": 2, 
            "os_core": 16, 
            "socket": 0, 
            "hw_thread": 0
        }, 
        {
            "core": 3, 
            "os_core": 24, 
            "socket": 0, 
            "hw_thread": 0
        }, 
        {
            "core": 4, 
            "os_core": 4, 
            "socket": 0, 
            "hw_thread": 0
        }, 
        {
            "core": 5, 
            "os_core": 12, 
            "socket": 0, 
            "hw_thread": 0
        }, 
        {
            "core": 6, 
            "os_core": 20, 
            "socket": 0, 
            "hw_thread": 0
        }, 
        {
            "core": 7, 
            "os_core": 28, 
            "socket": 0, 
            "hw_thread": 0
        }, 
        {
            "core": 0, 
            "os_core": 1, 
            "socket": 1, 
            "hw_thread": 0
        }, 
        {
            "core": 1, 
            "os_core": 9, 
            "socket": 1, 
            "hw_thread": 0
        }, 
        {
            "core": 2, 
            "os_core": 17, 
            "socket": 1, 
            "hw_thread": 0
        }, 
        {
            "core": 3, 
            "os_core": 25, 
            "socket": 1, 
            "hw_thread": 0
        }, 
        {
            "core": 4, 
            "os_core": 5, 
            "socket": 1, 
            "hw_thread": 0
        }, 
        {
            "core": 5, 
            "os_core": 13, 
            "socket": 1, 
            "hw_thread": 0
        }, 
        {
            "core": 6, 
            "os_core": 21, 
            "socket": 1, 
            "hw_thread": 0
        }, 
        {
            "core": 7, 
            "os_core": 29, 
            "socket": 1, 
            "hw_thread": 0
        }, 
        {
            "core": 0, 
            "os_core": 2, 
            "socket": 2, 
            "hw_thread": 0
        }, 
        {
            "core": 1, 
            "os_core": 10, 
            "socket": 2, 
            "hw_thread": 0
        }, 
        {
            "core": 2, 
            "os_core": 18, 
            "socket": 2, 
            "hw_thread": 0
        }, 
        {
            "core": 3, 
            "os_core": 26, 
            "socket": 2, 
            "hw_thread": 0
        }, 
        {
            "core": 4, 
            "os_core": 6, 
            "socket": 2, 
            "hw_thread": 0
        }, 
        {
            "core": 5, 
            "os_core": 14, 
            "socket": 2, 
            "hw_thread": 0
        }, 
        {
            "core": 6, 
            "os_core": 22, 
            "socket": 2, 
            "hw_thread": 0
        }, 
        {
            "core": 7, 
            "os_core": 30, 
            "socket": 2, 
            "hw_thread": 0
        }, 
        {
            "core": 0, 
            "os_core": 3, 
            "socket": 3, 
            "hw_thread": 0
        }, 
        {
            "core": 1, 
            "os_core": 11, 
            "socket": 3, 
            "hw_thread": 0
        }, 
        {
            "core": 2, 
            "os_core": 19, 
            "socket": 3, 
            "hw_thread": 0
        }, 
        {
            "core": 3, 
            "os_core": 27, 
            "socket": 3, 
            "hw_thread": 0
        }, 
        {
            "core": 4, 
            "os_core": 7, 
            "socket": 3, 
            "hw_thread": 0
        }, 
        {
            "core": 5, 
            "os_core": 15, 
            "socket": 3, 
            "hw_thread": 0
        }, 
        {
            "core": 6, 
            "os_core": 23, 
            "socket": 3, 
            "hw_thread": 0
        }, 
        {
            "core": 7, 
            "os_core": 31, 
            "socket": 3, 
            "hw_thread": 0
        }, 
        {
            "core": 0, 
            "os_core": 32, 
            "socket": 0, 
            "hw_thread": 1
        }, 
        {
            "core": 1, 
            "os_core": 40, 
            "socket": 0, 
            "hw_thread": 1
        }, 
        {
            "core": 2, 
            "os_core": 48, 
            "socket": 0, 
            "hw_thread": 1
        }, 
        {
            "core": 3, 
            "os_core": 56, 
            "socket": 0, 
            "hw_thread": 1
        }, 
        {
            "core": 4, 
            "os_core": 36, 
            "socket": 0, 
            "hw_thread": 1
        }, 
        {
            "core": 5, 
            "os_core": 44, 
            "socket": 0, 
            "hw_thread": 1
        }, 
        {
            "core": 6, 
            "os_core": 52, 
            "socket": 0, 
            "hw_thread": 1
        }, 
        {
            "core": 7, 
            "os_core": 60, 
            "socket": 0, 
            "hw_thread": 1
        }, 
        {
            "core": 0, 
            "os_core": 33, 
            "socket": 1, 
            "hw_thread": 1
        }, 
        {
            "core": 1, 
            "os_core": 41, 
            "socket": 1, 
            "hw_thread": 1
        }, 
        {
            "core": 2, 
            "os_core": 49, 
            "socket": 1, 
            "hw_thread": 1
        }, 
        {
            "core": 3, 
            "os_core": 57, 
            "socket": 1, 
            "hw_thread": 1
        }, 
        {
            "core": 4, 
            "os_core": 37, 
            "socket": 1, 
            "hw_thread": 1
        }, 
        {
            "core": 5, 
            "os_core": 45, 
            "socket": 1, 
            "hw_thread": 1
        }, 
        {
            "core": 6, 
            "os_core": 53, 
            "socket": 1, 
            "hw_thread": 1
        }, 
        {
            "core": 7, 
            "os_core": 61, 
            "socket": 1, 
            "hw_thread": 1
        }, 
        {
            "core": 0, 
            "os_core": 34, 
            "socket": 2, 
            "hw_thread": 1
        }, 
        {
            "core": 1, 
            "os_core": 42, 
            "socket": 2, 
            "hw_thread": 1
        }, 
        {
            "core": 2, 
            "os_core": 50, 
            "socket": 2, 
            "hw_thread": 1
        }, 
        {
            "core": 3, 
            "os_core": 58, 
            "socket": 2, 
            "hw_thread": 1
        }, 
        {
            "core": 4, 
            "os_core": 38, 
            "socket": 2, 
            "hw_thread": 1
        }, 
        {
            "core": 5, 
            "os_core": 46, 
            "socket": 2, 
            "hw_thread": 1
        }, 
        {
            "core": 6, 
            "os_core": 54, 
            "socket": 2, 
            "hw_thread": 1
        }, 
        {
            "core": 7, 
            "os_core": 62, 
            "socket": 2, 
            "hw_thread": 1
        }, 
        {
            "core": 0, 
            "os_core": 35, 
            "socket": 3, 
            "hw_thread": 1
        }, 
        {
            "core": 1, 
            "os_core": 43, 
            "socket": 3, 
            "hw_thread": 1
        }, 
        {
            "core": 2, 
            "os_core": 51, 
            "socket": 3, 
            "hw_thread": 1
        }, 
        {
            "core": 3, 
            "os_core": 59, 
            "socket": 3, 
            "hw_thread": 1
        }, 
        {
            "core": 4, 
            "os_core": 39, 
            "socket": 3, 
            "hw_thread": 1
        }, 
        {
            "core": 5, 
            "os_core": 47, 
            "socket": 3, 
            "hw_thread": 1
        }, 
        {
            "core": 6, 
            "os_core": 55, 
            "socket": 3, 
            "hw_thread": 1
        }, 
        {
            "core": 7, 
            "os_core": 63, 
            "socket": 3, 
            "hw_thread": 1
        }
    ], 
    "processor_info": {
        "cores_per_socket": 8, 
        "num_processors": 64, 
        "num_sockets": 4, 
        "hw_threads_per_core": 2
    }
}